{"href":"https://api.spotify.com/v1/artists/5F1aoppMtU3OMiltO8ymJ2/albums?offset=0&limit=3&include_groups=album,single,compilation,appears_on","limit":3,"next":"https://api.spotify.com/v1/artists/5F1aoppMtU3OMiltO8ymJ2/albums?offset=3&limit=3&include_groups=album,single,compilation,appears_on","offset":0,"previous":null,"total":48,"items":[{"album_type":"album","total_tracks":17,"available_markets":["AR","AU","AT","BE","BO","BR","BG","CA","CL","CO","CR","CY","CZ","DK","DO","DE","EC","EE","SV","FI","FR","GR","GT","HN","HK","HU","IS","IE","IT","LV","LT","LU","MY","MT","MX","NL","NZ","NI","NO","PA","PY","PE","PH","PL","PT","SG","SK","ES","SE","CH","TW","TR","UY","US","GB","AD","LI","MC","ID","JP","TH","VN","RO","IL","ZA","SA","AE","BH","QA","OM","KW","EG","MA","DZ","TN","LB","JO","PS","IN","BY","KZ","MD","UA","AL","BA","HR","ME","MK","RS","SI","KR","BD","PK","LK","GH","KE","NG","TZ","UG","AG","AM","BS","BB","BZ","BT","BW","BF","CV","CW","DM","FJ","GM","GE","GD","GW","GY","HT","JM","KI","LS","LR","MW","MV","ML","MH","FM","NA","NR","NE","PW","PG","PR","WS","SM","ST","SN","SC","SL","SB","KN","LC","VC","SR","TL","TO","TT","TV","VU","AZ","BN","BI","KH","CM","TD","KM","GQ","SZ","GA","GN","KG","LA","MO","MR","MN","NP","RW","TG","UZ","ZW","BJ","MG","MU","MZ","AO","CI","DJ","ZM","CD","CG","IQ","LY","TJ","VE","ET","XK"],"external_urls":{"spotify":"https://open.spotify.com/album/2HniCCShVLvJUGyoE8QoAN"},"href":"https://api.spotify.com/v1/albums/2HniCCShVLvJUGyoE8QoAN","id":"2HniCCShVLvJUGyoE8QoAN","images":[{"url":"https://i.scdn.co/image/ab67616d0000b27321dced81652f2d7782e8a6a7","height":640,"width":640},{"url":"https://i.scdn.co/image/ab67616d00001e0221dced81652f2d7782e8a6a7","height":300,"width":300},{"url":"https://i.scdn.co/image/ab67616d0000485121dced81652f2d7782e8a6a7","height":64,"width":64}],"name":"Oklahoma! (1998 Royal National Theatre Recording)","release_date":"1998-01-01","release_date_precision":"day","type":"album","uri":"spotify:album:2HniCCShVLvJUGyoE8QoAN","artists":[{"external_urls":{"spotify":"https://open.spotify.com/artist/4IbAZwt75dpehMOgcC3GnP"},"href":"https://api.spotify.com/v1/artists/4IbAZwt75dpehMOgcC3GnP","id":"4IbAZwt75dpehMOgcC3GnP","name":"Richard Rodgers","type":"artist","uri":"spotify:artist:4IbAZwt75dpehMOgcC3GnP"},{"external_urls":{"spotify":"https://open.spotify.com/artist/1DsYsmAtNbrMkoyrIXP6HU"},"href":"https://api.spotify.com/v1/artists/1DsYsmAtNbrMkoyrIXP6HU","id":"1DsYsmAtNbrMkoyrIXP6HU","name":"Oscar Hammerstein II","type":"artist","uri":"spotify:artist:1DsYsmAtNbrMkoyrIXP6HU"},{"external_urls":{"spotify":"https://open.spotify.com/artist/5F1aoppMtU3OMiltO8ymJ2"},"href":"https://api.spotify.com/v1/artists/5F1aoppMtU3OMiltO8ymJ2","id":"5F1aoppMtU3OMiltO8ymJ2","name":"Hugh Jackman","type":"artist","uri":"spotify:artist:5F1aoppMtU3OMiltO8ymJ2"}],"album_group":"album"},{"album_type":"compilation","total_tracks":11,"available_markets":["AR","AU","AT","BE","BO","BR","BG","CA","CL","CO","CR","CY","CZ","DK","DO","DE","EC","EE","SV","FI","FR","GR","GT","HN","HK","HU","IS","IE","IT","LV","LT","LU","MY","MT","MX","NL","NZ","NI","NO","PA","PY","PE","PH","PL","PT","SG","SK","ES","SE","CH","TW","TR","UY","US","GB","AD","LI","MC","ID","JP","TH","VN","RO","IL","ZA","SA","AE","BH","QA","OM","KW","EG","MA","DZ","TN","LB","JO","PS","IN","BY","KZ","MD","UA","AL","BA","HR","ME","MK","RS","SI","KR","BD","PK","LK","GH","KE","NG","TZ","UG","AG","AM","BS","BB","BZ","BT","BW","BF","CV","CW","DM","FJ","GM","GE","GD","GW","GY","HT","JM","KI","LS","LR","MW","MV","ML","MH","FM","NA","NR","NE","PW","PG","WS","SM","ST","SN","SC","SL","SB","KN","LC","VC","SR","TL","TO","TT","TV","VU","AZ","BN","BI","KH","CM","TD","KM","GQ","SZ","GA","GN","KG","LA","MO","MR","MN","NP","RW","TG","UZ","ZW","BJ","MG","MU","MZ","AO","CI","DJ","ZM","CD","CG","IQ","LY","TJ","VE","ET","XK"],"external_urls":{"spotify":"https://open.spotify.com/album/7ayBZIe1FHkNv0T5xFCX6F"},"href":"https://api.spotify.com/v1/albums/7ayBZIe1FHkNv0T5xFCX6F","id":"7ayBZIe1FHkNv0T5xFCX6F","images":[{"url":"https://i.scdn.co/image/ab67616d0000b273128057b40732c042c86de1dd","height":640,"width":640},{"url":"https://i.scdn.co/image/ab67616d00001e02128057b40732c042c86de1dd","height":300,"width":300},{"url":"https://i.scdn.co/image/ab67616d00004851128057b40732c042c86de1dd","height":64,"width":64}],"name":"The Greatest Showman (Original Motion Picture Soundtrack)","release_date":"2017-12-08","release_date_precision":"day","type":"album","uri":"spotify:album:7ayBZIe1FHkNv0T5xFCX6F","artists":[{"external_urls":{"spotify":"https://open.spotify.com/artist/0LyfQWJT6nXafLPZqxe9Of"},"href":"https://api.spotify.com/v1/artists/0LyfQWJT6nXafLPZqxe9Of","id":"0LyfQWJT6nXafLPZqxe9Of","name":"Various Artists","type":"artist","uri":"spotify:artist:0LyfQWJT6nXafLPZqxe9Of"}],"album_group":"appears_on"},{"album_type":"compilation","total_tracks":24,"available_markets":["AR","AU","AT","BE","BO","BR","BG","CA","CL","CO","CR","CY","CZ","DK","DO","DE","EC","EE","SV","FI","GR","GT","HN","HK","HU","IS","IE","IT","LV","LT","LU","MY","MT","MX","NL","NZ","NI","NO","PA","PY","PE","PH","PL","PT","SG","SK","ES","SE","CH","TW","TR","UY","AD","LI","MC","ID","JP","TH","VN","RO","IL","ZA","SA","AE","BH","QA","OM","KW","EG","MA","DZ","TN","LB","JO","PS","IN","BY","KZ","MD","UA","AL","BA","HR","ME","MK","RS","SI","KR","BD","PK","LK","GH","KE","NG","TZ","UG","AG","AM","BS","BB","BZ","BT","BW","BF","CV","CW","DM","FJ","GM","GE","GD","GW","GY","HT","JM","KI","LS","LR","MW","MV","ML","MH","FM","NA","NR","NE","PW","PG","WS","SM","ST","SN","SC","SL","SB","KN","LC","VC","SR","TL","TO","TT","TV","VU","AZ","BN","BI","KH","CM","TD","KM","GQ","SZ","GA","GN","KG","LA","MO","MR","MN","NP","RW","TG","UZ","ZW","BJ","MG","MU","MZ","AO","CI","DJ","ZM","CD","CG","IQ","LY","TJ","VE","ET","XK"],"external_urls":{"spotify":"https://open.spotify.com/album/1oqnHxrKI3Gq8MKgAGDtMr"},"href":"https://api.spotify.com/v1/albums/1oqnHxrKI3Gq8MKgAGDtMr","id":"1oqnHxrKI3Gq8MKgAGDtMr","images":[{"url":"https://i.scdn.co/image/ab67616d0000b273c4e9d12d9ccdd7e48d2a0329","height":640,"width":640},{"url":"https://i.scdn.co/image/ab67616d00001e02c4e9d12d9ccdd7e48d2a0329","height":300,"width":300},{"url":"https://i.scdn.co/image/ab67616d00004851c4e9d12d9ccdd7e48d2a0329","height":64,"width":64}],"name":"The Greatest Showman: Reimagined (Deluxe)","release_date":"2017-12-08","release_date_precision":"day","type":"album","uri":"spotify:album:1oqnHxrKI3Gq8MKgAGDtMr","artists":[{"external_urls":{"spotify":"https://open.spotify.com/artist/0LyfQWJT6nXafLPZqxe9Of"},"href":"https://api.spotify.com/v1/artists/0LyfQWJT6nXafLPZqxe9Of","id":"0LyfQWJT6nXafLPZqxe9Of","name":"Various Artists","type":"artist","uri":"spotify:artist:0LyfQWJT6nXafLPZqxe9Of"}],"album_group":"appears_on"}]}